{
	"_items": [
		{
			"id": 1,
			"m_gacha_skill_id": 1,
			"m_gacha_skill_group_id": 101,
			"rate": 65,
			"updated_at": "2017-10-31 23:56:01",
			"_updatedTime": {
				"dateData": 636450909610000000
			}
		},
		{
			"id": 2,
			"m_gacha_skill_id": 1,
			"m_gacha_skill_group_id": 102,
			"rate": 30,
			"updated_at": "2017-10-31 23:56:01",
			"_updatedTime": {
				"dateData": 636450909610000000
			}
		},
		{
			"id": 3,
			"m_gacha_skill_id": 1,
			"m_gacha_skill_group_id": 103,
			"rate": 5,
			"updated_at": "2017-10-31 23:56:01",
			"_updatedTime": {
				"dateData": 636450909610000000
			}
		}
	],
	"_size": 3,
	"_version": 0,
	"_syncRoot": null
}