{
	"_items": [
		{
			"id": 101,
			"name": "★1・2の★1",
			"rarity": 1,
			"updated_at": "2017-10-31 23:56:01",
			"_updatedTime": {
				"dateData": 636450909610000000
			}
		},
		{
			"id": 102,
			"name": "★1・2の★2",
			"rarity": 2,
			"updated_at": "2017-10-31 23:56:02",
			"_updatedTime": {
				"dateData": 636450909620000000
			}
		},
		{
			"id": 103,
			"name": "★2・3の★2",
			"rarity": 2,
			"updated_at": "2017-10-31 23:56:03",
			"_updatedTime": {
				"dateData": 636450909630000000
			}
		},
		{
			"id": 104,
			"name": "★2・3の★3",
			"rarity": 3,
			"updated_at": "2017-10-31 23:56:02",
			"_updatedTime": {
				"dateData": 636450909620000000
			}
		},
		{
			"id": 105,
			"name": "★3・4の★3",
			"rarity": 3,
			"updated_at": "2017-10-31 23:56:01",
			"_updatedTime": {
				"dateData": 636450909610000000
			}
		},
		{
			"id": 106,
			"name": "★3・4の★4",
			"rarity": 4,
			"updated_at": "2017-10-31 23:56:02",
			"_updatedTime": {
				"dateData": 636450909620000000
			}
		},
		{
			"id": 107,
			"name": "チュートリアル用の★3",
			"rarity": 3,
			"updated_at": "2017-10-31 23:56:01",
			"_updatedTime": {
				"dateData": 636450909610000000
			}
		}
	],
	"_size": 7,
	"_version": 0,
	"_syncRoot": null
}