{
	"_items": [
		{
			"id": 1,
			"sort": 1,
			"category": "ディスガイアRPGについて",
			"title": "ディスガイアRPGとは？",
			"body": "『魔界戦記ディスガイアRPG』とは、\n「魔界」を舞台に、悪魔や魔王、天使、\nそして人間たちの活躍を描いた\n史上最凶のやり込み育成RPGです。\n\n本作では「魔界戦記ディスガイア」シリーズの\n善悪の価値観が逆転している世界観や、\nやり込み要素を継承しながらも、\n歴代キャラクターたちが登場する\nオリジナルストーリーをお楽しみ\nいただけます。",
			"updated_at": "2017-10-31 23:57:01",
			"_updatedTime": {
				"dateData": 0
			}
		},
		{
			"id": 2,
			"sort": 2,
			"category": "キャラクターについて",
			"title": "基本概要",
			"body": "最強魔王候補として共に戦う仲間です。\n歴代ディスガイアシリーズの\n個性豊かな仲間たちが、\nあなたのキャラクターとして共に戦います。",
			"updated_at": "2017-10-31 23:57:01",
			"_updatedTime": {
				"dateData": 0
			}
		},
		{
			"id": 3,
			"sort": 3,
			"category": "キャラクターについて",
			"title": "基本ステータスについて",
			"body": "キャラクターの基本ステータスは、\n以下の6種類となります。\n\n・HP… キャラクター体力を示す能力値です。\n　　　　戦闘中に攻撃によるダメージを受け、\n　　　　HPが0になると戦闘不能となります。 \n\n・ATK…打撃による攻撃力を示す能力値です。\n　　　　高い程、通常攻撃及びATK依存の技で、\n　　　　大ダメージを与えることが出来ます。\n\n・DEF…打撃による攻撃耐性を示す能力値です。\n　　　　高い程、ATK依存のダメージを軽減する\n　　　　ことが出来ます。\n\n・INT…魔力による攻撃力を示す能力値です。\n　　　　高い程、INT依存の技で、大ダメージを\n　　　　与えることが出来ます。\n\n・DEF…魔法による攻撃耐性を示す能力値です。\n　　　　高い程、INT依存のダメージを軽減する\n　　　　ことが出来ます。\n\n・SPD…キャラクターの速さを示す能力値です。\n　　　　高い程、ターンが回ってくるまでの\n　　　　時間が短縮されるほか、\n　　　　クリティカル率も上昇します。",
			"updated_at": "2017-10-31 23:57:01",
			"_updatedTime": {
				"dateData": 0
			}
		},
		{
			"id": 4,
			"sort": 4,
			"category": "キャラクターについて",
			"title": "属性耐性について",
			"body": "属性耐性とは、バトルで使用する技に付随する、\n4つの属性に対するそれぞれの耐性を示す\nステータスとなります。\n0を基準とし、プラスであればその属性に耐性があり、\n値が高い程、同じ属性を持つ技のダメージを\n軽減することが出来ます。\nマイナスであれば、その属性が弱点となり、\n値が高い程、同じ属性を持つ技を受けると、\n大きなダメージを受けることとなります。",
			"updated_at": "2017-10-31 23:57:01",
			"_updatedTime": {
				"dateData": 0
			}
		},
		{
			"id": 5,
			"sort": 5,
			"category": "キャラクターについて",
			"title": "WM(ウエポンマスタリー)について",
			"body": "WM（ウエポンマスタリー）とは、\n各武器種の熟練度LVを示すステータスと\nなります。\n武器を装備する際に、武器種のWMに応じて\n装備時の武器がステータスが上昇します。\n\nまた、WMに応じて武器技と呼ばれる\n該当の武器種を装備している際に使用できる\n技が使用できるようになります。",
			"updated_at": "2017-10-31 23:57:01",
			"_updatedTime": {
				"dateData": 0
			}
		},
		{
			"id": 6,
			"sort": 6,
			"category": "キャラクターについて",
			"title": "チートランクについて",
			"body": "チートランクとは、キャラクターの\nベースパラメータを、上昇させる\nステータスとなります。\nチートランクは、各種基本ステータスごとに\nパラメータが存在し、\nマオのラボで転生によって獲得した\n「マナ」を、それぞれに割り振ることで、\nアップさせることが出来ます。",
			"updated_at": "2017-10-31 23:57:01",
			"_updatedTime": {
				"dateData": 0
			}
		},
		{
			"id": 7,
			"sort": 7,
			"category": "キャラクターについて",
			"title": "コマンドのセットについて",
			"body": "キャラクターごとに最大4つまで技を\nセットすることが出来ます。\nセットされた技はバトルで使用することが\n出来ます。\n武器技は、武器変更時に使用することが\n出来なくなるため、変更を行った際に、\nコマンドセットから外れます。",
			"updated_at": "2017-10-31 23:57:01",
			"_updatedTime": {
				"dateData": 0
			}
		},
		{
			"id": 8,
			"sort": 8,
			"category": "キャラクターについて",
			"title": "技（コマンド）の習得について",
			"body": "技には大きく分けて固有技・武器技・魔法の\n3種があり、それぞれで習得方法が異なります。\n\n①固有技\nキャラクターのレベルを特定レベルまで\n上げることで、習得することが出来ます。\n\n②武器技\nWM（ウエポンマスタリー）が\n一定値に達することで該当武器の武器技を\n習得することが出来ます。\n武器技は、習得した武器技と同じ武器種の\n武器を、装備した際にのみ使用することが\n出来ます。\n武器技の習得が出来るのは人型のキャラクター\nとなり、\n魔物型のキャラクターは習得することが\n出来ません。\nまた、WMで習得できる武器技は、\n人型の全キャラクター共通となります。",
			"updated_at": "2017-10-31 23:57:01",
			"_updatedTime": {
				"dateData": 0
			}
		},
		{
			"id": 9,
			"sort": 9,
			"category": "キャラクターについて",
			"title": "メイン魔ビリティーについて",
			"body": "それぞれのキャラクターが所持している\nリーダーに設定したときに発動する効果を\n「魔ビリティー」と呼びます。\n\n「魔ビリティー」はリーダーに設定しないと\n発動せず、リーダーはパーティ編成の\n一番左に設定したキャラクターとなります。\n\nまた、戦闘時、同行者に選んだユーザーと\nフォロー、またはフォロワーのいずれかの\n関係である場合、同行者の\n「メイン魔ビリティー」も発動します。",
			"updated_at": "2017-10-31 23:57:01",
			"_updatedTime": {
				"dateData": 0
			}
		},
		{
			"id": 10,
			"sort": 10,
			"category": "キャラクターについて",
			"title": "サブ魔ビリティーについて",
			"body": "「サブ魔ビリティー」はゲームを\nプレイしていくと獲得できる秘伝書を\n使用することで習得することができます。\n\n「メイン魔ビリティー」同様、\n「サブ魔ビリティー」もリーダーに\n設定したときに発動することができます。\n\nまた、選んだ同行者と相互フォローの関係で\nある場合は\n「メイン魔ビリティー」と\n「サブ魔ビリティー」の効果も発動します。",
			"updated_at": "2017-10-31 23:57:01",
			"_updatedTime": {
				"dateData": 0
			}
		},
		{
			"id": 11,
			"sort": 11,
			"category": "キャラクターについて",
			"title": "所持枠について",
			"body": "キャラクター、装備品、イノセント倉庫には\nそれぞれ最大所持枠が設定されており\n最大所持枠以上のアイテムを獲得したときは、\nギフトで確認することができます。\n\nギフトの受け取り期間は30日となっています。\n\nまたそれぞれの所持枠は\nショップにて魔晶石で拡張することが\nできます。",
			"updated_at": "2017-10-31 23:57:01",
			"_updatedTime": {
				"dateData": 0
			}
		},
		{
			"id": 12,
			"sort": 12,
			"category": "召喚について",
			"title": "基本概要",
			"body": "魔晶石を利用し、キャラクターを\n獲得することができます。\n1日1度無料召喚を行うことができます。\n（0時 更新）",
			"updated_at": "2017-10-31 23:57:01",
			"_updatedTime": {
				"dateData": 0
			}
		},
		{
			"id": 13,
			"sort": 13,
			"category": "時空の狭間について",
			"title": "基本概要",
			"body": "メインストーリーや魔界史回想などの\nすべてのクエストは時空の狭間から\n行くことができます。",
			"updated_at": "2017-10-31 23:57:01",
			"_updatedTime": {
				"dateData": 0
			}
		},
		{
			"id": 14,
			"sort": 14,
			"category": "メインストーリーについて",
			"title": "ステージについて",
			"body": "EASYモードから始まり、エピソード第1話を\nクリアすると\n第1話のNORMALモードが解放されます。",
			"updated_at": "2017-10-31 23:57:01",
			"_updatedTime": {
				"dateData": 0
			}
		},
		{
			"id": 15,
			"sort": 15,
			"category": "メインストーリーについて",
			"title": "ストーリーについて",
			"body": "ディスガイアRPGオリジナルストーリーと\nなります。\nストーリーのみのクエストが存在し、\nそこでストーリーを確認することができます。",
			"updated_at": "2017-10-31 23:57:01",
			"_updatedTime": {
				"dateData": 0
			}
		},
		{
			"id": 16,
			"sort": 16,
			"category": "メインストーリーについて",
			"title": "同行者について",
			"body": "特定のステージを除き、\n基本的に同行者を連れての戦闘となります。\n\n同行者に選んだユーザーと\nフォロー、またはフォロワーのいずれかの\n関係である場合、同行者の\n「メイン魔ビリティー」効果が発動します。\n\nまた、選んだ同行者と相互フォローの関係で\nある場合は、「メイン魔ビリティー」と\n「サブ魔ビリティー」の効果が\n発動します。",
			"updated_at": "2017-10-31 23:57:01",
			"_updatedTime": {
				"dateData": 0
			}
		},
		{
			"id": 17,
			"sort": 17,
			"category": "メインストーリーについて",
			"title": "ステージミッションについて",
			"body": "ステージ毎に決められたミッションが\nミッション条件を達成すると\n報酬を獲得することができます。\n報酬は一度のみ獲得することができます。",
			"updated_at": "2017-10-31 23:57:01",
			"_updatedTime": {
				"dateData": 0
			}
		},
		{
			"id": 18,
			"sort": 18,
			"category": "魔界史回想について",
			"title": "基本概要",
			"body": "今までのディスガイアシリーズの\nストーリーに沿ったクエストを楽しむことが\nできます。",
			"updated_at": "2017-10-31 23:57:01",
			"_updatedTime": {
				"dateData": 0
			}
		},
		{
			"id": 19,
			"sort": 19,
			"category": "暗黒ゲートについて",
			"title": "基本概要",
			"body": "暗黒議会で開放されたクエストへ行くことが\nできます。\n解放されてから8時間経過する、または\n最大5回まで挑戦するとクエストは終了し、\n再度暗黒議会の議題として追加されます。\n\nゲートにはEXPやHLがたくさんもらえる\n特別なステージなどが存在します。",
			"updated_at": "2017-10-31 23:57:01",
			"_updatedTime": {
				"dateData": 0
			}
		},
		{
			"id": 20,
			"sort": 20,
			"category": "アイテム界について",
			"title": "基本概要",
			"body": "アイテム界では装備品のレベルを\n上げることができます。\nアイテム界を1階クリアする度に\nレベルが上昇し対象の装備品のステータスが\n強化されます。",
			"updated_at": "2017-10-31 23:57:01",
			"_updatedTime": {
				"dateData": 0
			}
		},
		{
			"id": 21,
			"sort": 21,
			"category": "アイテム界について",
			"title": "アイテム界の階層について",
			"body": "装備品のレアリティーによって階層は\n異なります。\n各装備レアリティーの最大階層は\n以下となります。\n< COMMON >\n30階\n\n< RARE >\n60階\n\n< LEGEND >\n100階",
			"updated_at": "2017-10-31 23:57:01",
			"_updatedTime": {
				"dateData": 0
			}
		},
		{
			"id": 22,
			"sort": 22,
			"category": "魔王の巨塔について",
			"title": "基本概要",
			"body": "EASYモードの7話までをすべてクリアすると\n「魔王の巨塔」が出現します。\n魔王の巨塔では同行者を\n連れていくことはできません。",
			"updated_at": "2017-10-31 23:57:01",
			"_updatedTime": {
				"dateData": 0
			}
		},
		{
			"id": 23,
			"sort": 23,
			"category": "魔王の巨塔について",
			"title": "各階層のクリア報酬について",
			"body": "1階をクリアする度に\n報酬を獲得することができます。\n特定の階層をクリアすると\n特別な報酬を獲得することができます。\n※報酬は初回のみとなります。",
			"updated_at": "2017-10-31 23:57:01",
			"_updatedTime": {
				"dateData": 0
			}
		},
		{
			"id": 24,
			"sort": 24,
			"category": "バトルについて",
			"title": "基本概要",
			"body": "キャラクターが所持しているSPDに準拠し\nターンが回って来たキャラクターから\nコマンドを選択しコマンドを発動します。\nキャラクターが持っているHPが0になると\n戦闘不能となり、\nパーティーメンバーが全員戦闘不能になると\n敗北となります。",
			"updated_at": "2017-10-31 23:57:01",
			"_updatedTime": {
				"dateData": 0
			}
		},
		{
			"id": 25,
			"sort": 25,
			"category": "バトルについて",
			"title": "SPについて",
			"body": "コマンドはSPを利用して発動することが\nできます。\n戦闘開始時、SPは50から開始します。\n\n行動したり、敵を倒すとSPを獲得することが\nできます。",
			"updated_at": "2017-10-31 23:57:01",
			"_updatedTime": {
				"dateData": 0
			}
		},
		{
			"id": 26,
			"sort": 26,
			"category": "バトルについて",
			"title": "技について",
			"body": "キャラクター毎に\n最大4つまで設定できるコマンドとなります。\nコマンドを使用することでSPを消費、\nSPが無い場合はコマンドを使用することが\nできません。",
			"updated_at": "2017-10-31 23:57:01",
			"_updatedTime": {
				"dateData": 0
			}
		},
		{
			"id": 27,
			"sort": 27,
			"category": "バトルについて",
			"title": "撃破EXPについて",
			"body": "敵に最後のダメージを与え戦闘不能にさせると\n撃破ボーナスを獲得し、通常より多くEXPを\n獲得することができます。",
			"updated_at": "2017-10-31 23:57:01",
			"_updatedTime": {
				"dateData": 0
			}
		},
		{
			"id": 28,
			"sort": 28,
			"category": "バトルについて",
			"title": "ギブアップについて",
			"body": "戦闘途中で「ギブアップ」すると、\nそれまで獲得したアイテムを獲得することは\nできません。",
			"updated_at": "2017-10-31 23:57:01",
			"_updatedTime": {
				"dateData": 0
			}
		},
		{
			"id": 29,
			"sort": 29,
			"category": "バトルについて",
			"title": "ユーザースキルの使用について",
			"body": "ユーザーRANK15になると\nユーザースキルを使用できるようになります。\nユーザースキルは3つまでセットすることが\nでき戦闘中に使用することができます。\n\nキャラクターまたは敵が行動中に\nユーザースキルを使用すると予約状態となり、\n行動終了時に、予約したユーザースキルが\n発動します。",
			"updated_at": "2017-10-31 23:57:01",
			"_updatedTime": {
				"dateData": 0
			}
		},
		{
			"id": 30,
			"sort": 30,
			"category": "バトルについて",
			"title": "各種設定について",
			"body": "戦闘中のメニューから\n戦闘設定を変更することができます。\n音量設定や技演出のSKIPなどの設定を\n変更することができます。\n\n技演出SKIPをONにすると\n戦闘中演出をSKIPするようになります。",
			"updated_at": "2017-10-31 23:57:01",
			"_updatedTime": {
				"dateData": 0
			}
		},
		{
			"id": 31,
			"sort": 31,
			"category": "技（コマンド）について",
			"title": "基本概要",
			"body": "キャラクターはレベルやウエポンマスタリー\nから戦闘中に使用できる技（コマンド）を\n習得することができます。\n\n習得したコマンドは\nキャラクター詳細画面にて、\n自分のパーティーに見合った\nコマンドの編成を行うことができます。\n\nコマンドは最大4つまで編成することが\n可能です。",
			"updated_at": "2017-10-31 23:57:01",
			"_updatedTime": {
				"dateData": 0
			}
		},
		{
			"id": 32,
			"sort": 32,
			"category": "技（コマンド）について",
			"title": "技の種別について",
			"body": "コマンドには武器技・魔法技・固有技の\n3種類の技が存在します。",
			"updated_at": "2017-10-31 23:57:01",
			"_updatedTime": {
				"dateData": 0
			}
		},
		{
			"id": 33,
			"sort": 33,
			"category": "技（コマンド）について",
			"title": "技の効果について",
			"body": "コマンドにはダメージを与えるものや回復するもの、\nまた、毒・睡眠・麻痺・ど忘れの\n4種類の状態異常効果があります。\n\n< 毒 >\n一定ターンの間自分のターン開始時に\n最大HPの10%のダメージを受けます。\nHPは必ず1残り、毒の効果によって\n死ぬことはありません。\n\n< 睡眠 >\n一定ターン行動が出来なくなりますが\n敵から攻撃を受けると解除されます。\n行動ターンが回ってきても何もしません。\n\n< 麻痺 >\n一定ターン行動できなくなります。\n行動ターンが回ってきても何もしません。\n\n< ド忘れ >\n一定ターン技が使用できなくなります",
			"updated_at": "2017-10-31 23:57:01",
			"_updatedTime": {
				"dateData": 0
			}
		},
		{
			"id": 34,
			"sort": 34,
			"category": "技（コマンド）について",
			"title": "武器技の習得について",
			"body": "ウェポンマスタリーのレベルに応じて\n習得します。",
			"updated_at": "2017-10-31 23:57:01",
			"_updatedTime": {
				"dateData": 0
			}
		},
		{
			"id": 35,
			"sort": 35,
			"category": "技（コマンド）について",
			"title": "魔法の習得について",
			"body": "杖のウェポンマスタリーのレベルに応じて、\nキャラクターが所持する専用技を習得します。",
			"updated_at": "2017-10-31 23:57:01",
			"_updatedTime": {
				"dateData": 0
			}
		},
		{
			"id": 36,
			"sort": 36,
			"category": "技（コマンド）について",
			"title": "固有技の習得について",
			"body": "キャラクターが所持する専用技となり、\n特定のレベルに達成すると習得します。\n　\nまたキャラクターによっては、\n「マナ」を使用して習得できる技もあります。",
			"updated_at": "2017-10-31 23:57:01",
			"_updatedTime": {
				"dateData": 0
			}
		},
		{
			"id": 37,
			"sort": 37,
			"category": "ユーザースキルについて",
			"title": "基本概要",
			"body": "ユーザーRANK15になると\n使用できるようになります。\nキャラクターのコマンドとは異なり、\n戦闘開始からゲージが上昇し、\nゲージが最大になると使用できる\nスキルとなります。\n\n効果には全体ダメージやSP回復など、\n戦闘を有利に進めることが可能なスキルと\nなります。",
			"updated_at": "2017-10-31 23:57:01",
			"_updatedTime": {
				"dateData": 0
			}
		},
		{
			"id": 38,
			"sort": 38,
			"category": "ユーザースキルについて",
			"title": "ユーザーステータスについて",
			"body": "「勇気」「優しさ」「野心」「素直さ」の\n4つ存在します。\n\n「勇気」\n攻撃系のユーザースキル効果に影響\n\n「優しさ」\n補助系のユーザースキル効果に影響\n\n「野心」\n回復系のユーザースキル効果に影響\n\n「素直さ」\nユーザースキルのゲージ速度上昇と\n補助系のスキル効果継続時間に影響",
			"updated_at": "2017-10-31 23:57:01",
			"_updatedTime": {
				"dateData": 0
			}
		},
		{
			"id": 39,
			"sort": 39,
			"category": "ユーザースキルについて",
			"title": "ユーザーステータスの割り振りについて",
			"body": "RANKが上がったときに獲得できる\n魔王候補PTを割り振ることにより、\nユーザースキルの効果が上昇し、\n新しいユーザースキルを習得します。",
			"updated_at": "2017-10-31 23:57:01",
			"_updatedTime": {
				"dateData": 0
			}
		},
		{
			"id": 40,
			"sort": 40,
			"category": "各種装備品について",
			"title": "装備品の各種ステータスについて",
			"body": "装備品には武器（杖を含む）・防具・装備の\n3種類のアイテムがあり、キャラクターは\n武器1つ、防具3つを装備することができます。\n\n装備各種ステータスの主な特性\n\n「武器」\n主にATKがアップ\n\n「杖」\n主にINTがアップ\n\n「防具・装備」\nは主にDEF・RESがアップ",
			"updated_at": "2017-10-31 23:57:01",
			"_updatedTime": {
				"dateData": 0
			}
		},
		{
			"id": 41,
			"sort": 41,
			"category": "各種装備品について",
			"title": "装備品のレアリティーについて",
			"body": "装備品のレアリティーが高いほど\n装備品のステータスは高く、\nまたイノセントの住居数が多くなります。",
			"updated_at": "2017-10-31 23:57:01",
			"_updatedTime": {
				"dateData": 0
			}
		},
		{
			"id": 42,
			"sort": 42,
			"category": "各種装備品について",
			"title": "装備品のレベルについて",
			"body": "装備品のレベルはレアリティーによって\n最大レベルが異なります。\n\n< COMMON >\n最大レベル50\n\n< RARE >\n最大レベル100\n\n< LEGEND >\n最大レベル180",
			"updated_at": "2017-10-31 23:57:01",
			"_updatedTime": {
				"dateData": 0
			}
		},
		{
			"id": 43,
			"sort": 43,
			"category": "各種装備品について",
			"title": "ウエポンマスタリーと装備品について",
			"body": "ウエポンマスタリーのレベルは\n「マナ」を使用して上げることができます。\nレベルを上げることで武器コマンドを\n習得することができます。\n\nウエポンマスタリーは\n「転生」すると獲得できる\n「マナ」を使用してレベルを上げることが\nできます。",
			"updated_at": "2017-10-31 23:57:01",
			"_updatedTime": {
				"dateData": 0
			}
		},
		{
			"id": 44,
			"sort": 44,
			"category": "各種装備品について",
			"title": "イノセントの装備について",
			"body": "装備にはその装備のアイテム界に\nイノセントが住んでいる場合があります。\nそのイノセントを服従させることで、\nそのイノセントの効果が発動します。\n\nまた服従させることで他の装備へと\n移住させる（効果を移す）ことができます。",
			"updated_at": "2017-10-31 23:57:01",
			"_updatedTime": {
				"dateData": 0
			}
		},
		{
			"id": 45,
			"sort": 45,
			"category": "イノセントについて",
			"title": "基本概要",
			"body": "イノセントは、装備品のアイテム界に\n住んでおり、そのアイテム界に行き\nイノセントを服従させることで、\nイノセントが所持している特殊効果が発動し、\n装備を強化させることができます。\n\n服従後はイノセントを他の装備へ\n移住させる（効果を移す）ことも可能です。\nイノセントを服従させないと、\nイノセントが持っている特殊効果は\n発動しません。\n",
			"updated_at": "2017-10-31 23:57:01",
			"_updatedTime": {
				"dateData": 0
			}
		},
		{
			"id": 46,
			"sort": 46,
			"category": "イノセントについて",
			"title": "イノセントの種類について",
			"body": "イノセントの効果は下記10種類が存在します。\n\nHP屋・SP屋・ATK屋・INT屋・DEF屋・RES屋・SPD屋\n→ステータスを上昇\n\nEXP増加屋、ヘル増加屋\n→獲得量が増加\n\nSP増加屋\n→SPの最大値が増加",
			"updated_at": "2017-10-31 23:57:01",
			"_updatedTime": {
				"dateData": 0
			}
		},
		{
			"id": 47,
			"sort": 47,
			"category": "イノセントについて",
			"title": "イノセントの服従について",
			"body": "アイテム界を進んでいくと、\nイノセントに出会うことがあります。\n\nイノセントにターゲットを合わせると\n「服従させる」コマンドが選択可能となります。\n\nイノセントを服従させることが難しい場合は、\n説得し賄賂アイテムを渡すことで好感度が\nあがり、服従成功率を上げることができます。\n\nイノセントを倒してしまったり\n条件が満たせなかった場合は、\nイノセントは逃亡しその装備品から\n消滅します。",
			"updated_at": "2017-10-31 23:57:01",
			"_updatedTime": {
				"dateData": 0
			}
		},
		{
			"id": 48,
			"sort": 48,
			"category": "イノセントについて",
			"title": "イノセント倉庫について",
			"body": "服従させたイノセントは\nイノセント倉庫にて保管することができます。\n\nイノセント倉庫はショップにて、\n魔晶石で拡張することができます。",
			"updated_at": "2017-10-31 23:57:01",
			"_updatedTime": {
				"dateData": 0
			}
		},
		{
			"id": 49,
			"sort": 49,
			"category": "SHOPについて",
			"title": "基本概要",
			"body": "各種便利アイテムや装備品、\n魔晶石の購入をすることができます。\nまた、装備品の売却や所持枠の拡張が行え、\n福引きにも挑戦することができます。",
			"updated_at": "2017-10-31 23:57:01",
			"_updatedTime": {
				"dateData": 0
			}
		},
		{
			"id": 50,
			"sort": 50,
			"category": "SHOPについて",
			"title": "お得意様RANKについて",
			"body": "お得意様RANKを上げることで\n「装備品の購入」のラインアップアイテムに\nより強力な装備品が並びやすくなります。\n\nお得意様RANKは暗黒議会の議題を\n可決することで上げることができます。",
			"updated_at": "2017-10-31 23:57:01",
			"_updatedTime": {
				"dateData": 0
			}
		},
		{
			"id": 51,
			"sort": 51,
			"category": "SHOPについて",
			"title": "魔晶石の購入について",
			"body": "魔晶石やお得なパックなどを購入することが\nできます。",
			"updated_at": "2017-10-31 23:57:01",
			"_updatedTime": {
				"dateData": 0
			}
		},
		{
			"id": 52,
			"sort": 52,
			"category": "SHOPについて",
			"title": "アイテムの購入について",
			"body": "魔晶石やヘルを消費することで、\n行動力回復薬や賄賂アイテムを\n購入することができます。\n",
			"updated_at": "2017-10-31 23:57:01",
			"_updatedTime": {
				"dateData": 0
			}
		},
		{
			"id": 53,
			"sort": 53,
			"category": "SHOPについて",
			"title": "装備品の購入について",
			"body": "お得意様RANKに応じた装備品を\n購入することができます。\nラインアップは更新が可能で、1日5回まで\n無料で利用できますが、以降は魔晶石の消費が\n必要となります。\n無料更新回数の回復は0時となります。",
			"updated_at": "2017-10-31 23:57:01",
			"_updatedTime": {
				"dateData": 0
			}
		},
		{
			"id": 54,
			"sort": 54,
			"category": "SHOPについて",
			"title": "装備品の売却について",
			"body": "所持している装備品を\n売却することができます。\nキャラが装着している装備品は\nリストには並びません。\n装備品売却時は、居住しているイノセントも\n消失するのでご注意ください。",
			"updated_at": "2017-10-31 23:57:01",
			"_updatedTime": {
				"dateData": 0
			}
		},
		{
			"id": 55,
			"sort": 55,
			"category": "SHOPについて",
			"title": "所持枠の拡張について",
			"body": "魔晶石を使用し、キャラや装備品の\n所持枠を拡張することができます。",
			"updated_at": "2017-10-31 23:57:01",
			"_updatedTime": {
				"dateData": 0
			}
		},
		{
			"id": 56,
			"sort": 56,
			"category": "SHOPについて",
			"title": "福引きについて",
			"body": "装備品を購入または売却することで、\nまれに福引券を獲得することができます。\n獲得した福引券で福引き抽選会が\n挑戦可能となります。\n\n福引き抽選会ではランダムでアイテムを\n獲得することができます。\n景品は、一定期間で更新されますので\nご注意ください。",
			"updated_at": "2017-10-31 23:57:01",
			"_updatedTime": {
				"dateData": 0
			}
		},
		{
			"id": 57,
			"sort": 57,
			"category": "魔界病院",
			"title": "基本概要",
			"body": "戦闘で受けた被ダメージ数の累計や\n戦闘不能回数などに応じて、\n報酬を獲得することができます。\n\nまたドーピングルーレットを\n回すことができます。",
			"updated_at": "2017-10-31 23:57:01",
			"_updatedTime": {
				"dateData": 0
			}
		},
		{
			"id": 58,
			"sort": 58,
			"category": "魔界病院",
			"title": "報酬について",
			"body": "「累計被ダメージ」「累計戦闘不能者数」\n「累計全滅回数」に応じて、\n報酬を獲得することができます。\n報酬の受取は景品受け取りボタンから\n獲得可能です。",
			"updated_at": "2017-10-31 23:57:01",
			"_updatedTime": {
				"dateData": 0
			}
		},
		{
			"id": 59,
			"sort": 59,
			"category": "魔界病院",
			"title": "ドーピングルーレットについて",
			"body": "テキトーに行動力を回復できる\nルーレットとなります。\n再利用には一定のお時間を必要とします。",
			"updated_at": "2017-10-31 23:57:01",
			"_updatedTime": {
				"dateData": 0
			}
		},
		{
			"id": 60,
			"sort": 60,
			"category": "魔界調査団",
			"title": "基本概要",
			"body": "不要なキャラクターたちを\n左遷することができます。\nまた調査隊を結成し一定時間派遣することで\nアイテムやキャラなどを獲得することが\nできます。",
			"updated_at": "2017-10-31 23:57:01",
			"_updatedTime": {
				"dateData": 0
			}
		},
		{
			"id": 61,
			"sort": 61,
			"category": "魔界調査団",
			"title": "キャラの左遷について",
			"body": "キャラクターを左遷することで、\nHLを獲得することができます。\n\n左遷することで調査団のRANKを上げることができます。",
			"updated_at": "2017-10-31 23:57:01",
			"_updatedTime": {
				"dateData": 0
			}
		},
		{
			"id": 62,
			"sort": 62,
			"category": "魔界調査団",
			"title": "お手伝いについて",
			"body": "フォロー、フォロワーのユーザーを\nお手伝いすることができます。\nお手伝いを行うとストック数が貯まり\nストックを消費して、調査をすることが\nできます。",
			"updated_at": "2017-10-31 23:57:01",
			"_updatedTime": {
				"dateData": 0
			}
		},
		{
			"id": 63,
			"sort": 63,
			"category": "魔界調査団",
			"title": "調査隊の編成について",
			"body": "左遷したキャラクターを\n編成することができます。\nキャラクターにはそれぞれ\n調査の特殊技能があります。",
			"updated_at": "2017-10-31 23:57:01",
			"_updatedTime": {
				"dateData": 0
			}
		},
		{
			"id": 64,
			"sort": 64,
			"category": "魔界調査団",
			"title": "調査力について",
			"body": "キャラクターにはそれぞれ調査力があり\n調査力が高ければ高いほど、\n獲得HLなどが上昇します。",
			"updated_at": "2017-10-31 23:57:01",
			"_updatedTime": {
				"dateData": 0
			}
		},
		{
			"id": 65,
			"sort": 65,
			"category": "魔界調査団",
			"title": "調査団RANKについて",
			"body": "キャラクターを左遷し、調査団RANKを\n上げることで、調査可能な魔界の種類が\n増加します。",
			"updated_at": "2017-10-31 23:57:01",
			"_updatedTime": {
				"dateData": 0
			}
		},
		{
			"id": 66,
			"sort": 66,
			"category": "魔ビリティー屋",
			"title": "基本概要",
			"body": "魔ビリティーチケットを利用することで、\n秘伝書を獲得することができます。",
			"updated_at": "2017-10-31 23:57:01",
			"_updatedTime": {
				"dateData": 0
			}
		},
		{
			"id": 67,
			"sort": 67,
			"category": "魔ビリティー屋",
			"title": "魔ビリティーの書を生成",
			"body": "魔法ビリティーの書を生成することで、\n秘伝書を獲得します。\n\n5冊まとめて生成することも可能です。",
			"updated_at": "2017-10-31 23:57:01",
			"_updatedTime": {
				"dateData": 0
			}
		},
		{
			"id": 68,
			"sort": 68,
			"category": "魔ビリティー屋",
			"title": "提供割合について",
			"body": "\"秘伝書にはレアリティーが存在し、\nレアリティーが高い秘伝書ほど\n入手確率は低くなります。\n\n秘伝書のレアリティー種\n< COMMON >\n< RARE >\n< LEGEND >",
			"updated_at": "2017-10-31 23:57:01",
			"_updatedTime": {
				"dateData": 0
			}
		},
		{
			"id": 69,
			"sort": 69,
			"category": "暗黒議会",
			"title": "基本概要",
			"body": "暗黒ゲートの解放や\nお得意様RANKの上昇など、\n様々なコンテンツを\n解放することができます。",
			"updated_at": "2017-10-31 23:57:01",
			"_updatedTime": {
				"dateData": 0
			}
		},
		{
			"id": 70,
			"sort": 70,
			"category": "暗黒議会",
			"title": "議題Ptについて",
			"body": "1日100pt使用することができ、\n魔晶石を利用して、最大まで\n回復することができます。\n\n議題Ptは毎日0時になると\n100Ptまで回復します。",
			"updated_at": "2017-10-31 23:57:01",
			"_updatedTime": {
				"dateData": 0
			}
		},
		{
			"id": 71,
			"sort": 71,
			"category": "暗黒議会",
			"title": "議題の可決確率について",
			"body": "特定の議題は、ユーザーRANKが上昇すると\n可決確率が上昇します。",
			"updated_at": "2017-10-31 23:57:01",
			"_updatedTime": {
				"dateData": 0
			}
		},
		{
			"id": 72,
			"sort": 72,
			"category": "暗黒議会",
			"title": "可決の期待値について",
			"body": "議題の内容やユーザーRANKによって、\n議題の可決する期待値が変化します。",
			"updated_at": "2017-10-31 23:57:01",
			"_updatedTime": {
				"dateData": 0
			}
		},
		{
			"id": 73,
			"sort": 73,
			"category": "暗黒議会",
			"title": "賄賂について",
			"body": "賄賂アイテムを議員に渡すことで、\n議題の可決確率を上昇させることが\nできます。",
			"updated_at": "2017-10-31 23:57:01",
			"_updatedTime": {
				"dateData": 0
			}
		},
		{
			"id": 74,
			"sort": 74,
			"category": "暗黒議会",
			"title": "議員について",
			"body": "必ず8人の議員が暗黒議会に参加し、\n議題によって可決確率が変動します。\nまた特定の議題についてはユーザーRANKを\n上げることで、成功率を上昇させることが\nできます。",
			"updated_at": "2017-10-31 23:57:01",
			"_updatedTime": {
				"dateData": 0
			}
		},
		{
			"id": 75,
			"sort": 75,
			"category": "マオのラボについて",
			"title": "基本概要",
			"body": "キャラクターを覚醒、継承、転生、\nマナ割り振りなどを行うことができます。",
			"updated_at": "2017-10-31 23:57:01",
			"_updatedTime": {
				"dateData": 0
			}
		},
		{
			"id": 76,
			"sort": 76,
			"category": "マオのラボについて",
			"title": "転生について",
			"body": "\n転生機能は、最大Lvまで育成したキャラクター\nを対象にレベルがリセットされる代わりに、\nマナの獲得と最大レベルの上限解放が\n行われます。\n転生にはHLが必要となります。\n",
			"updated_at": "2017-10-31 23:57:01",
			"_updatedTime": {
				"dateData": 0
			}
		},
		{
			"id": 77,
			"sort": 77,
			"category": "マオのラボについて",
			"title": "覚醒について",
			"body": "HLを消費し\n同じキャラクターであれば1体、\n異なるキャラクターであれば5体を\n覚醒素材にすることで、キャラクターの\nレア度を上昇させることができます。",
			"updated_at": "2017-10-31 23:57:01",
			"_updatedTime": {
				"dateData": 0
			}
		},
		{
			"id": 78,
			"sort": 78,
			"category": "マオのラボについて",
			"title": "継承について",
			"body": "HLと継承石を利用することで、\nキャラクターのレベルとマナを\n他のキャラクターに引き継ぐことができます。\n\n継承は、素材キャラクターが\nベースキャラクターより育成されていない場合\n実行できませんのでご注意ください。",
			"updated_at": "2017-10-31 23:57:01",
			"_updatedTime": {
				"dateData": 0
			}
		},
		{
			"id": 79,
			"sort": 79,
			"category": "マオのラボについて",
			"title": "マナ割り振りについて",
			"body": "獲得したマナを割り振りコマンドの習得や、ベースステータスを上昇させることが\nできます。",
			"updated_at": "2017-10-31 23:57:01",
			"_updatedTime": {
				"dateData": 0
			}
		},
		{
			"id": 80,
			"sort": 80,
			"category": "回想屋について",
			"title": "基本概要",
			"body": "メインストーリーやその他イベントなどの\nコンテンツを確認することができます。",
			"updated_at": "2017-10-31 23:57:01",
			"_updatedTime": {
				"dateData": 0
			}
		},
		{
			"id": 81,
			"sort": 81,
			"category": "回想屋について",
			"title": "ストーリーの開放について",
			"body": "クリアしたストーリーを再度閲覧することが\nできます。",
			"updated_at": "2017-10-31 23:57:01",
			"_updatedTime": {
				"dateData": 0
			}
		},
		{
			"id": 82,
			"sort": 82,
			"category": "回想屋について",
			"title": "キャラエピソードについて",
			"body": "キャラクターを獲得し特定のレベルまで\n上げることで、それぞれのエピソードを\n閲覧することができます。",
			"updated_at": "2017-10-31 23:57:01",
			"_updatedTime": {
				"dateData": 0
			}
		},
		{
			"id": 83,
			"sort": 83,
			"category": "記録屋について",
			"title": "基本概要",
			"body": "ユーザーの様々な情報を確認することが\nできます。",
			"updated_at": "2017-10-31 23:57:01",
			"_updatedTime": {
				"dateData": 0
			}
		},
		{
			"id": 84,
			"sort": 84,
			"category": "記録屋について",
			"title": "キャラクター図鑑について",
			"body": "今までに獲得したキャラクター情報を\n確認することができます。",
			"updated_at": "2017-10-31 23:57:01",
			"_updatedTime": {
				"dateData": 0
			}
		},
		{
			"id": 85,
			"sort": 85,
			"category": "記録屋について",
			"title": "装備品図鑑について",
			"body": "今までに獲得した装備品の情報を\n確認することができます。",
			"updated_at": "2017-10-31 23:57:01",
			"_updatedTime": {
				"dateData": 0
			}
		},
		{
			"id": 86,
			"sort": 86,
			"category": "記録屋について",
			"title": "これまでの記録について",
			"body": "これまでのプレイ日数や最大与ダメージなどを\n確認することができます。",
			"updated_at": "2017-10-31 23:57:01",
			"_updatedTime": {
				"dateData": 0
			}
		},
		{
			"id": 87,
			"sort": 87,
			"category": "拠点カスタムについて",
			"title": "基本概要",
			"body": "拠点画面を自分好みにカスタマイズでき\nる機能となります。\n\n・拠点画面で再生されるBGM\n・拠点画面の背景\n\n上記の2項目を自由に変更することができます。\n\n拠点画面で再生できるBGM及び背景は\n・ミッション報酬\n・暗黒議会の議題\n\nで獲得することができます。\n\n暗黒議会の議題で出現するには\nメインストーリーを特定のステージまで\nクリアすることで議題が解放されます。",
			"updated_at": "2017-10-31 23:57:01",
			"_updatedTime": {
				"dateData": 0
			}
		},
		{
			"id": 88,
			"sort": 88,
			"category": "端末引継ぎについて",
			"title": "基本概要",
			"body": "メニューにある「端末引継ぎ」から\nデータ引き継ぎを行うことができます。\n発行したユーザーIDと引き継ぎコードを\n大切に保管してください。\n\n端末データの引継ぎはタイトル画面の\nメニューボタンから\n「ユーザーID」と「引継ぎコード」を\n入力しデータを引き継ぐことが可能です。\n\nなお異なるOS間での引継ぎ時は、\n有償石が同数の無償石に変換されますので\nご注意ください。",
			"updated_at": "2017-10-31 23:57:01",
			"_updatedTime": {
				"dateData": 0
			}
		},
		{
			"id": 89,
			"sort": 89,
			"category": "キャッシュクリアについて",
			"title": "基本概要",
			"body": "ゲーム中に思わぬエラーが発生した場合、キャッシュクリアを行うことで\n復旧される場合がございます。",
			"updated_at": "2017-10-31 23:57:01",
			"_updatedTime": {
				"dateData": 0
			}
		},
		{
			"id": 90,
			"sort": 90,
			"category": "データ修復について",
			"title": "基本概要",
			"body": "データ修復機能を利用することで\n保存されたデータが削除され\n操作が軽くなる場合がございます。\nプレイ中のゲームデータは削除されません。",
			"updated_at": "2017-10-31 23:57:01",
			"_updatedTime": {
				"dateData": 0
			}
		},
		{
			"id": 91,
			"sort": 91,
			"category": "設定変更について",
			"title": "基本概要",
			"body": "音量とPUSH通知の設定を\n変更することができます。\n\nPUSH通知は端末側で通知設定を\n許可していない場合、\nこちらの設定を変更しても\n通知がされないのでご注意ください。",
			"updated_at": "2017-10-31 23:57:01",
			"_updatedTime": {
				"dateData": 0
			}
		}
	],
	"_size": 91,
	"_version": 0,
	"_syncRoot": null
}