{
	"_items": [
		{
			"id": 1,
			"info_type": 4,
			"title": "緊急メンテナンスのお知らせ",
			"body": "アクセス負荷により\nゲームサーバーサーバーへ繋がりにくい状況が\n発生しているため11時45分より緊急メンテナンスを実施いたします。\n\n\nこの度はご迷惑をおかけし、\n誠に申し訳ございません。\n\n\nメンテナンスの進捗などにつきましては\n公式Twitterよりお知らせいたします。\n\n\n今後とも『魔界戦記ディスガイアRPG』を\nよろしくお願いいたします。",
			"open_at": "2019-03-19 11:45:00",
			"close_at": "2019-03-20 10:00:00",
			"updated_at": "2019-03-19 11:00:00",
			"created_at": "2019-03-19 10:00:00",
			"_updatedTime": {
				"dateData": 0
			},
			"_createdTime": {
				"dateData": 0
			}
		},
		{
			"id": 2,
			"info_type": 1,
			"title": "サービス開始のお知らせ",
			"body": "本日2019年3月19日より\n『魔界戦記ディスガイアRPG』のサービスを\n開始いたしました。\n\n歴代シリーズのキャラクター達が織りなす\n新しいディスガイアをお楽しみください。\n\n【事前登録の特典について】\n多くの皆様に登録いただき、\n事前登録数は40万人を突破いたしました。\n\n実施しておりました事前登録キャンペーンの特典として\n『☆3堕天使フロン』、\n獲得経験値が上昇する剣『グロウソード』、\n魔物武器『スクスクの卵殻』\nをプレゼントいたします。\n\n【特典の配布期間】\n2019年3月19日～2019年4月2日23:59\n\nまた、上記事前登録特典に加え\n初回インストール特典として10連召喚分の魔晶石も\nプレゼントいたします。\n\nさらに、『初心者ミッション』の報酬として\n『☆3エトナ』が獲得出来ます。\n\n初心者ミッションを攻略して\n追加報酬を手に入れてください！\n\nその他、ログインボーナスや\nキャンペーンも用意しております。\n\n詳細は各種お知らせをご確認ください。\n\n今後とも『魔界戦記ディスガイアRPG』を\nよろしくお願いいたします。",
			"open_at": "2019-03-19 10:00:00",
			"close_at": "2019-03-20 10:00:00",
			"updated_at": "2019-03-19 11:00:00",
			"created_at": "2019-03-19 10:00:00",
			"_updatedTime": {
				"dateData": 0
			},
			"_createdTime": {
				"dateData": 0
			}
		},
		{
			"id": 3,
			"info_type": 3,
			"title": "リリース記念キャンペーン",
			"body": "本日2019年3月19日の『魔界戦記ディスガイアRPG』の\nサービス開始を記念いたしまして\nお得なキャンペーンを開催いたします。\n\n【キャンペーン概要】\n①リリース記念召喚\n期間中1度だけ挑戦できる\n『☆4キャラ1体確定！10連召喚』を開催いたします。\n\n【開催期間】\n2019年3月19日～2019年4月2日23:59\n\n※登場する☆4キャラクターは\n　「召喚」の提供割合よりお確かめください。\n\n\n②リリース記念パック\n期間限定でお得なパックを3種類販売いたします。\nいずれも大変お得なパックとなっております。\n是非この機会にお買い求めください。\n\n【パック概要】\nリリース記念パックS　価格 2,500-\n・有償魔晶石×1042個\n・無償魔晶石×313個\n・11111HL\n・行動力回復薬×1個\n・高級カニミソ×1個\n\nリリース記念パックM　価格 6,000-\n・有償魔晶石×2500個\n・無償魔晶石×1000個\n・33333HL\n・行動力回復薬×3個\n・高級カニミソ×3個\n\nリリース記念パックL　価格 11,800-\n・有償魔晶石×4833個\n・無償魔晶石×2417個\n・66666HL\n・行動力回復薬×6個\n・高級カニミソ×6個\n\n【開催期間】\n2019年3月19日～2019年3月25日23:59\n\n\n③リリース記念ログインボーナス\nログインするだけで一日に一度、\n魔晶石を500個獲得できるキャンペーンを実施します。\n\n期間中に最大2500個の魔晶石が獲得できますので\n毎日ログインして魔晶石をGETしましょう。\n\n※魔晶石は開催期間中、合計5日間獲得できます。\n\n【開催期間】\n2019年3月19日～2019年4月2日23:59\n\n\nこれからも皆様にお楽しみいただけるよう、\nキャンペーンやイベントを用意してまいります。\n\n今後とも『魔界戦記ディスガイアRPG』を\nよろしくお願いいたします。\n\n【注意事項】\n・上記キャンペーンは\n　予告なく内容が変更、中断される場合がございます。\n　あらかじめご了承ください。",
			"open_at": "2019-03-19 10:00:00",
			"close_at": "2019-03-20 10:00:00",
			"updated_at": "2019-03-19 11:00:00",
			"created_at": "2019-03-19 10:00:00",
			"_updatedTime": {
				"dateData": 0
			},
			"_createdTime": {
				"dateData": 0
			}
		},
		{
			"id": 4,
			"info_type": 1,
			"title": "発生中の不具合に関しまして",
			"body": "『魔界戦記ディスガイアRPG』をご利用いただき、\n誠にありがとうございます。\n\n2019年3月19日現在、\n以下の不具合が発生していますのでお知らせします。\n\n■ユーザースキルがランク15で開放されない。\n\n■お知らせのスクロールがサイドバー以外で行えず\n 　タップで消えてしまう。（iOS版でのみ発生）\n\n■アイテム界のサブチュートリアル後、\n　 どのバトルに出撃しても進行不可となる。（iOS版でのみ発生）\n　 ※アプリを再起動していただくと、正常にプレイを再開できます。\n\n■装備において、購入・売却時に表示される価格(HL)が\n 　実際消費される価格と異なる。（iOS版でのみ発生）\n　 ※当不具合により購入時にヘルが足りない場合はエラーとなります。\n\n上記に関しまして、\n現在原因の調査および修正を行っております。\n\n修正が完了し次第、\nお知らせにてご報告させていただきます。\n\n\nこの度は、ご不便をお掛けすることとなり\n誠に申し訳ございません。\n\n今後とも『魔界戦記ディスガイアRPG』を\nよろしくお願いいたします。",
			"open_at": "2019-03-19 10:00:00",
			"close_at": "2019-03-20 10:00:00",
			"updated_at": "2019-03-19 11:00:00",
			"created_at": "2019-03-19 10:00:00",
			"_updatedTime": {
				"dateData": 0
			},
			"_createdTime": {
				"dateData": 0
			}
		},
		{
			"id": 5,
			"info_type": 1,
			"title": "緊急メンテナンス終了のお知らせ",
			"body": "昨日より実施しておりました緊急メンテナンスは\n7時をもって終了いたしました。\n\n現在は正常にゲームへアクセスできることを\n確認しております。\n\nこの度は長時間にわたりプレイができない状況となり\nましたことを深くお詫びいたします。\n\n今回の緊急メンテナンスのお詫びといたしまして\n全てのお客様に下記アイテムをお送りさせていただきます。\n\n【お詫びアイテム】\n魔晶石×1,500個\n\nお詫びアイテムの配布日時、受け取り期間につきましては\n改めてお知らせいたします。\n\nこの度はご迷惑をおかけし、\n誠に申し訳ございませんでした。\n\n今後とも『魔界戦記ディスガイアRPG』を\nよろしくお願いいたします。",
			"open_at": "2019-03-20 07:00:00",
			"close_at": "2019-03-20 10:00:00",
			"updated_at": "2019-03-20 10:00:00",
			"created_at": "2019-03-20 07:00:00",
			"_updatedTime": {
				"dateData": 0
			},
			"_createdTime": {
				"dateData": 0
			}
		},
		{
			"id": 6,
			"info_type": 1,
			"title": "不具合修正のお知らせ",
			"body": "『魔界戦記ディスガイアRPG』をご利用いただき、\n誠にありがとうございます。\n\n下記不具合を修正いたしました。\n\n■ユーザースキルがランク15で開放されない。\n\n■お知らせのスクロールがサイドバー以外で行えず\n 　タップで消えてしまう。（iOS版でのみ発生）\n\n■アイテム界のサブチュートリアル後、\n　 どのバトルに出撃しても進行不可となる。（iOS版でのみ発生）\n　 \n\n■装備において、購入・売却時に表示される価格(HL)が\n 　実際消費される価格と異なる。（iOS版でのみ発生）\n\n\nご迷惑をおかけして申し訳ございませんでした。\n\n\n今後とも『魔界戦記ディスガイアRPG』を\nよろしくお願いいたします。",
			"open_at": "2019-03-20 15:01:00",
			"close_at": "2019-03-20 10:00:00",
			"updated_at": "2019-03-20 18:10:00",
			"created_at": "2019-03-20 18:10:00",
			"_updatedTime": {
				"dateData": 0
			},
			"_createdTime": {
				"dateData": 0
			}
		},
		{
			"id": 7,
			"info_type": 1,
			"title": "サービス開始のお知らせ",
			"body": "本日2019年3月19日より『魔界戦記ディスガイアRPG』のサービスを開始いたしました。\n歴代シリーズのキャラクター達が織りなす\n新しいディスガイアをお楽しみください。\n\n【事前登録の特典について】\n多くの皆様に登録いただき、事前登録数は40万人を突破いたしました。\n実施しておりました事前登録キャンペーンの特典として、\n『☆3堕天使フロン』、\n獲得経験値が上昇する剣『グロウソード』、\n魔物武器『スクスクの卵殻』\nをプレゼントいたします。\n\n【特典の配布期間】\n2019年3月19日～<color=#ff8888>2019年4月4日23:59\n※長時間メンテナンスに伴い終了日を変更しました。</color>\n\nまた、上記事前登録特典に加え\n初回インストール特典として10連召喚分の魔晶石\nもプレゼントいたします。\n\nさらに、『初心者ミッション』の報酬として\n『☆3エトナ』が獲得出来ます。\n初心者ミッションを攻略して追加報酬を\n手に入れてください！\n\nその他、ログインボーナスやキャンペーンも用意しております。\n詳細は各種お知らせをご確認ください。\n\n\n今後とも『魔界戦記ディスガイアRPG』をよろしくお願いいたします。",
			"open_at": "2019-03-20 18:15:00",
			"close_at": "2019-03-21 17:00:00",
			"updated_at": "2019-03-21 17:10:00",
			"created_at": "2019-03-20 21:00:24",
			"_updatedTime": {
				"dateData": 0
			},
			"_createdTime": {
				"dateData": 0
			}
		},
		{
			"id": 8,
			"info_type": 1,
			"title": "リリース記念キャンペーン",
			"body": "本日2019年3月19日の『魔界戦記ディスガイアRPG』のサービス開始を記念いたしまして\nお得なキャンペーンを開催いたします。\n\n【キャンペーン概要】\n①リリース記念召喚\n期間中1度だけ挑戦できる『☆4キャラ1体確定！\n10連召喚』を開催いたします。\n【開催期間】2019年3月19日～<color=#ff8888>2019年4月4日23:59\n※長時間メンテナンスに伴い終了日を変更しました。</color>\n\n※登場する☆4キャラクターは\n  「召喚」の提供割合よりお確かめください。\n\n\n②リリース記念パック\n期間限定でお得なパックを3種類販売いたします。\nいずれも大変お得なパックとなっております。\n是非この機会にお買い求めください。\n\n【パック概要】\nリリース記念パックS　価格¥2,500-\n・有償魔晶石×1042個\n・無償魔晶石×313個\n・11111HL\n・行動力回復薬×1個\n・高級カニミソ×1個\n\nリリース記念パックM　価格¥6,000-\n・有償魔晶石×2500個\n・無償魔晶石×1000個\n・33333HL\n・行動力回復薬×3個\n・高級カニミソ×3個\n\nリリース記念パックL　価格¥11,800-\n・有償魔晶石×4833個\n・無償魔晶石×2417個\n・66666HL\n・行動力回復薬×6個\n・高級カニミソ×6個\n\n【開催期間】2019年3月19日～<color=#ff8888>2019年3月27日23:59\n※長時間メンテナンスに伴い終了日を変更しました。</color>\n\n③リリース記念ログインボーナス\nログインするだけで一日に一度、\n魔晶石を500個獲得できるキャンペーンを実施します。\n期間中に最大2500個の魔晶石が獲得できますので\n毎日ログインして魔晶石をGETしましょう。\n\n※魔晶石は開催期間中、合計5日間獲得できます。\n\n【開催期間】2019年3月19日～<color=#ff8888>2019年4月4日23:59\n※長時間メンテナンスに伴い終了日を変更しました。</color>\n\nこれからも皆様にお楽しみいただけるよう、\nキャンペーンやイベントを用意してまいります。\n\n今後とも『魔界戦記ディスガイアRPG』をよろしくお願いいたします。\n\n【注意事項】\n・上記キャンペーンは予告なく内容が変更、中断される場合がございます。\n　あらかじめご了承ください。",
			"open_at": "2019-03-20 18:15:00",
			"close_at": "2019-03-21 17:00:00",
			"updated_at": "2019-03-21 17:10:00",
			"created_at": "2019-03-20 21:00:26",
			"_updatedTime": {
				"dateData": 0
			},
			"_createdTime": {
				"dateData": 0
			}
		},
		{
			"id": 9,
			"info_type": 4,
			"title": "アプリ更新のお知らせ",
			"body": "『魔界戦記ディスガイアRPG』をご利用いただき、\n誠にありがとうございます。\n\n下記の更新をおこないましたのでお知らせいたします。\n\n＜不具合修正＞\n■ユーザースキルがランク15で開放されない。\n\n■お知らせのスクロールがサイドバー以外で行えず\n 　タップで消えてしまう。（iOS版でのみ発生）\n\n■アイテム界のサブチュートリアル後、\n　 どのバトルに出撃しても進行不可となる。（iOS版でのみ発生）\n\n■装備において、購入・売却時に表示される価格(HL)が\n 　実際消費される価格と異なる。（iOS版でのみ発生）\n\n＜バランス調整＞\n■ニジレッドの魔ビリティー性能を修正\n■妖魔族の魔ビリティー性能を修正\n\nなお本件のお詫びといたしまして\n全てのお客様に下記アイテムをお送りさせていただきます。\n\n【お詫びアイテム】\nHL　 ×10,000\n\nお詫びアイテムは\n後日ギフトBOXへお送りさせていただきます。\n受け取り期限は配布から7日となりますので\nお早めにギフトBOXよりお受け取りください。\n\nご迷惑をおかけして申し訳ございませんでした。\n\n今後とも『魔界戦記ディスガイアRPG』を\nよろしくお願いいたします。",
			"open_at": "2019-03-20 18:15:00",
			"close_at": "2019-03-21 17:00:00",
			"updated_at": "2019-03-21 17:10:00",
			"created_at": "2019-03-20 21:00:28",
			"_updatedTime": {
				"dateData": 0
			},
			"_createdTime": {
				"dateData": 0
			}
		},
		{
			"id": 10,
			"info_type": 4,
			"title": "緊急メンテナンス終了のお知らせ",
			"body": "昨日より実施しておりました緊急メンテナンスは\n21時をもって終了いたしました。\n\nこの度は長時間にわたり\nプレイができない状況となりましたことを\n深くお詫びいたします。\n\n今回の緊急メンテナンスのお詫びといたしまして\n全てのお客様に下記アイテムをお送りさせていただきます。\n\n【お詫びアイテム】\n魔晶石×1,500個\n行動力回復薬×10個\n\nお詫びアイテムは\n後日ギフトBOXへお送りさせていただきます。\n受け取り期限は配布から7日となりますので\nお早めにギフトBOXよりお受け取りください。\n\nこの度はご迷惑をおかけし、\n誠に申し訳ございませんでした。\n\n今後とも『魔界戦記ディスガイアRPG』を\nよろしくお願いいたします。",
			"open_at": "2019-03-20 18:15:00",
			"close_at": "2019-03-21 17:00:00",
			"updated_at": "2019-03-21 17:10:00",
			"created_at": "2019-03-20 21:00:30",
			"_updatedTime": {
				"dateData": 0
			},
			"_createdTime": {
				"dateData": 0
			}
		},
		{
			"id": 11,
			"info_type": 1,
			"title": "サービス開始のお知らせ",
			"body": "『魔界戦記ディスガイアRPG』のサービスを\n開始いたしました。\n歴代シリーズのキャラクター達が織りなす\n新しいディスガイアをお楽しみください。\n\n【事前登録の特典について】\n多くの皆様に登録いただき、事前登録数は40万人を突破いたしました。\n実施しておりました事前登録キャンペーンの特典として、\n『☆3堕天使フロン』、\n獲得経験値が上昇する剣『グロウソード』、\n魔物武器『スクスクの卵殻』、\nをプレゼントいたします。\n\n【特典の配布期間】\n2019年3月19日～<color=#ff8888>2019年4月5日23:59\n※長時間メンテナンスに伴い終了日を変更しました。</color>\n\nまた、上記事前登録特典に加え\n初回インストール特典として10連召喚分の魔晶石\nもプレゼントいたします。\n\nさらに、『初心者ミッション』の報酬として\n『☆3エトナ』が獲得出来ます。\n初心者ミッションを攻略して追加報酬を\n手に入れてください！\n\nその他、ログインボーナスやキャンペーンも用意しております。\n詳細は各種お知らせをご確認ください。\n\n\n今後とも『魔界戦記ディスガイアRPG』をよろしくお願いいたします。",
			"open_at": "2019-03-21 17:10:00",
			"close_at": "2019-03-26 17:10:00",
			"updated_at": "2019-03-26 16:50:00",
			"created_at": "2019-03-21 19:30:24",
			"_updatedTime": {
				"dateData": 0
			},
			"_createdTime": {
				"dateData": 0
			}
		},
		{
			"id": 12,
			"info_type": 1,
			"title": "リリース記念キャンペーン",
			"body": "『魔界戦記ディスガイアRPG』のサービス開始を\n記念いたしましてお得なキャンペーンを\n開催いたします。\n\n【キャンペーン概要】\n①リリース記念召喚\n期間中1度だけ挑戦できる\n『☆4キャラ1体確定！10連召喚』を開催いたします。\n【開催期間】2019年3月19日～<color=#ff8888>2019年4月5日23:59\n※長時間メンテナンスに伴い終了日を変更しました。</color>\n\n※登場する☆4キャラクターは\n  「召喚」の提供割合よりお確かめください。\n\n\n②リリース記念パック\n期間限定でお得なパックを3種類販売いたします。\nいずれも大変お得なパックとなっております。\n是非この機会にお買い求めください。\n\n【パック概要】\nリリース記念パックS　価格¥2,500-\n・有償魔晶石×1042個\n・無償魔晶石×313個\n・11111HL\n・行動力回復薬×1個\n・高級カニミソ×1個\n\nリリース記念パックM　価格¥6,000-\n・有償魔晶石×2500個\n・無償魔晶石×1000個\n・33333HL\n・行動力回復薬×3個\n・高級カニミソ×3個\n\nリリース記念パックL　価格¥11,800-\n・有償魔晶石×4833個\n・無償魔晶石×2417個\n・66666HL\n・行動力回復薬×6個\n・高級カニミソ×6個\n\n【開催期間】2019年3月19日～<color=#ff8888>2019年3月28日23:59\n※長時間メンテナンスに伴い終了日を変更しました。</color>\n\n③リリース記念ログインボーナス\nログインするだけで一日に一度、\n魔晶石を500個獲得できるキャンペーンを実施します。\n期間中に最大2500個の魔晶石が獲得できますので\n毎日ログインして魔晶石をGETしましょう。\n\n※魔晶石は開催期間中、合計5日間獲得できます。\n\n【開催期間】2019年3月19日～<color=#ff8888>2019年4月5日23:59\n※長時間メンテナンスに伴い終了日を変更しました。</color>\n\nこれからも皆様にお楽しみいただけるよう、\nキャンペーンやイベントを用意してまいります。\n\n今後とも『魔界戦記ディスガイアRPG』をよろしくお願いいたします。\n\n【注意事項】\n・上記キャンペーンは予告なく内容が変更、中断される場合がございます。\n　あらかじめご了承ください。",
			"open_at": "2019-03-21 17:10:00",
			"close_at": "2019-03-26 17:10:00",
			"updated_at": "2019-03-26 16:50:00",
			"created_at": "2019-03-21 19:30:26",
			"_updatedTime": {
				"dateData": 0
			},
			"_createdTime": {
				"dateData": 0
			}
		},
		{
			"id": 13,
			"info_type": 1,
			"title": "アプリ更新のお知らせ",
			"body": "『魔界戦記ディスガイアRPG』をご利用いただき、\n誠にありがとうございます。\n\n下記の更新をおこないましたのでお知らせいたします。\n\n＜不具合修正＞\n■ユーザースキルがランク15で開放されない。\n\n■お知らせのスクロールがサイドバー以外で行えず\n 　タップで消えてしまう。（iOS版でのみ発生）\n\n■アイテム界のサブチュートリアル後、\n　 どのバトルに出撃しても進行不可となる。\n　（iOS版でのみ発生）\n\n■装備において、購入・売却時に表示される価格(HL)が\n 　実際消費される価格と異なる。（iOS版でのみ発生）\n\n＜バランス調整＞\n■ニジレッドの魔ビリティー性能を修正\n■妖魔族の魔ビリティー性能を修正\n\nなお本件のお詫びといたしまして\n全てのお客様に下記アイテムをお送りさせていただきます。\n\n【お詫びアイテム】\nHL　 ×10,000\n\nお詫びアイテムは\n後日ギフトBOXへお送りさせていただきます。\n受け取り期限は配布から7日となりますので\nお早めにギフトBOXよりお受け取りください。\n\nご迷惑をおかけして申し訳ございませんでした。\n\n今後とも『魔界戦記ディスガイアRPG』を\nよろしくお願いいたします。",
			"open_at": "2019-03-21 17:10:00",
			"close_at": "2019-04-21 17:10:00",
			"updated_at": "2019-03-26 16:50:00",
			"created_at": "2019-03-21 19:30:28",
			"_updatedTime": {
				"dateData": 0
			},
			"_createdTime": {
				"dateData": 0
			}
		},
		{
			"id": 14,
			"info_type": 4,
			"title": "緊急メンテナンス終了のお知らせ",
			"body": "緊急メンテナンスは\n19時30分をもって終了いたしました。\n\nこの度は長時間にわたり\nプレイができない状況となりましたことを\n深くお詫びいたします。\n\n今回の緊急メンテナンスのお詫びといたしまして\n全てのお客様に下記アイテムをお送りさせていただきます。\n\n【お詫びアイテム】\n魔晶石×3,000個\n行動力回復薬×10個\n\nお詫びアイテムは\n後日ギフトBOXへお送りさせていただきます。\n受け取り期限は配布から7日となりますので\nお早めにギフトBOXよりお受け取りください。\n\nこの度はご迷惑をおかけし、\n誠に申し訳ございませんでした。\n\n今後とも『魔界戦記ディスガイアRPG』を\nよろしくお願いいたします。",
			"open_at": "2019-03-21 17:10:00",
			"close_at": "2019-03-26 17:10:00",
			"updated_at": "2019-03-26 16:50:00",
			"created_at": "2019-03-21 19:30:30",
			"_updatedTime": {
				"dateData": 0
			},
			"_createdTime": {
				"dateData": 0
			}
		},
		{
			"id": 15,
			"info_type": 4,
			"title": "各種キャンペーンとお詫びについて",
			"body": "『魔界戦記ディスガイアRPG』をご利用いただき、\n誠にありがとうございます。\n\n各種キャンペーンの日程変更、\n長期メンテナンスのお詫び内容について\n詳細は以下の通りとなりますのでご確認ください。\n\n\n●事前登録特典の配布期間を以下のとおり変更します。\n　2019年3月19日～2019年4月15日23:59\n\n●リリース記念ログインボーナスの開催期間を以下のとおり変更します。\n　2019年3月19日～未定\n　終了日については機能制限解除後にあらためてご案内致します。\n\n●リリース記念召喚の開催期間を以下のとおり変更します。\n　2019年3月19日～未定\n　終了日については機能制限解除後にあらためてご案内致します。\n\n●期間限定アイテム「リリース記念パック」の\n　販売終了日の日程については機能制限解除後にあらためてご案内致します。\n※リリース記念パックの新規購入は現在停止させていただいております。\n\n\n【長期メンテナンスのお詫びについて】\n今回の長期メンテナンスのお詫びといたしまして、\n一部機能制限とアクセス数の限定の解除が完了次第、全てのお客様に以下のゲーム内アイテムをお送りさせていただきます。\n\n●魔晶石×5,000個\n●行動回復薬×10個\n●高級カニミソ×10個\n●ＨＬ×10,000\n\nお詫びのアイテムは\n後日ギフトBOXへお送りさせていただきます。\n受け取り期限は配布より7日となりますので、\nお早めにギフトBOXよりお受け取りください。\n（配布が完了次第、改めまして、お受け取り期限を告知いたします）\n\n今回の長期にわたるメンテナンスにつきまして、\nこのような状況となりましたことを重ねて\n深くお詫び申し上げます。\n\n皆さまに安心してお楽しみいただけるよう、引き続き\nサービスの改善に全力で取り組んで参ります。\n\n今後とも「魔界戦記ディスガイアRPG」をよろしくお願い致します。",
			"open_at": "2019-03-29 17:10:00",
			"close_at": "2019-04-30 15:00:00",
			"updated_at": "2019-03-29 20:00:00",
			"created_at": "2019-03-30 22:00:00",
			"_updatedTime": {
				"dateData": 0
			},
			"_createdTime": {
				"dateData": 0
			}
		},
		{
			"id": 16,
			"info_type": 4,
			"title": "一部機能制限とアクセスの限定について",
			"body": "『魔界戦記ディスガイアRPG』をご利用いただき、\n誠にありがとうございます。\n\n一部機能制限とアクセス数の限定について\n詳細は以下の通りとなりますのでご確認ください。\n\n●魔晶石の新規購入は現在停止させて\nいただいております。ショップ内「魔晶石の購入」は\nご利用いただけませんのでご了承下さい。\n\n●魔界パスポートの新規購入は現在停止させて\nいただいております。既に魔界パスポートを\nご購入いただいている場合はログインに応じて\n報酬が付与されます。\n\n※魔界パスポートは1回の購入で購入日を含め合計で15日間（＝15回）のログインに対し報酬が付与されます。\n　未ログインの日があっても権利は消失せず、合計15回にわたり報酬を得ることができます。\n\n●既にご購入済の魔晶石やゲーム内報酬などで入手できる魔晶石は全てご利用いただけます。\n\n●その他は全てのモードをお楽しみいただけます。\n機能制限中に得た全てのキャラクター・ゲーム内アイテム等は、機能制限解除後も引き続きご利用いただけます。\n\n●アクセス集中の緩和のため、混雑時にはゲームへのログインを制限させていただく場合がありますので予めご了承ください。\n混雑のお知らせが表示されログインできない場合は時間をおいてから接続いただけますようお願い致します。\n\n一部機能制限とアクセス数の限定の解除については、\nあらためてご案内させていただきます。",
			"open_at": "2019-03-29 17:10:00",
			"close_at": "2019-04-30 15:00:00",
			"updated_at": "2019-03-29 20:00:00",
			"created_at": "2019-03-30 22:00:10",
			"_updatedTime": {
				"dateData": 0
			},
			"_createdTime": {
				"dateData": 0
			}
		},
		{
			"id": 17,
			"info_type": 4,
			"title": "一部制限付きサービス再開のお知らせ",
			"body": "本日、3月30日（土）22:00をもちまして\r\n緊急メンテナンスを終了し、一部の機能制限と\r\nアクセス数を限定して、サービスを再開させて\r\nいただきましたのでご案内致します。\r\n\r\n多大なご期待をいただいたお客様に対しまして、\r\nご迷惑をおかけし、誠に申し訳ございません。\r\n\r\n以下より、現象の発生から現在までの事態の経緯と、\r\n現在までに完了した対応ついて、\r\n記載させていただきます。\r\n\r\n【経緯と対応内容について】\r\n3月19日のサービス開始直後から\r\n想定を大きく上回るアクセスにより\r\n通信が不安定な状況に陥り、安定したサービスの提供が\r\n難しい状態となったため緊急メンテナンスを実施し、\r\nサービスの提供を一時停止させていただきました。\r\n\r\n原因調査を行い、サーバの増強や不具合の修正、\r\nその他安定化のための改善を実施し\r\nサービスの再開を試みましたが、いずれもすぐに\r\nアクセスに耐えきれない状況となり\r\n再度緊急メンテナンスを実施させていただきました。\r\n\r\nその後のアクセス解析の結果、非常に多くの\r\nユーザーの皆さまにダウンロードいただけたことに加え、\r\n海外からの過剰なアクセスも発生していたことが\r\n判明しました。\r\n\r\n解析結果を元に、\r\n更なるサーバの増強とアプリの改修に加え、\r\n外部の専門家の協力も得ながら\r\n対策を実施いたしました。\r\n※現状では、日本国内からのみプレイいただけます。\r\n\r\n長期にわたり\r\nゲームがプレイできない状態となりましたことを\r\n深くお詫びいたします。\r\n\r\n多くの時間をかけて内部テストや\r\n負荷テストを実施しましたが、これまでの状況より\r\nサービス稼働状態でエラーが発生する可能性に鑑みて、\r\n一部の機能制限およびアクセス数を限定し、\r\nサービスを再開させていただきます。\r\n\r\nご不便、ご迷惑をお掛けし大変申し訳ございませんが、\r\nご理解とご協力をよろしくお願い致します。\r\n",
			"open_at": "2019-03-29 17:10:00",
			"close_at": "2019-04-30 15:00:00",
			"updated_at": "2019-03-29 20:00:00",
			"created_at": "2019-03-30 22:00:20",
			"_updatedTime": {
				"dateData": 0
			},
			"_createdTime": {
				"dateData": 0
			}
		}
	],
	"_size": 17,
	"_version": 0,
	"_syncRoot": null
}