{
	"_items": [
		{
			"id": 101,
			"name": "HL",
			"item_type": 1,
			"icon_no": 101,
			"effect_value": [
				0
			],
			"description": "魔界で使われている通貨",
			"max_num": 99999999,
			"updated_at": "2017-10-31 23:56:01",
			"_updatedTime": {
				"dateData": 636450909610000000
			}
		},
		{
			"id": 201,
			"name": "魔晶石",
			"item_type": 2,
			"icon_no": 201,
			"effect_value": [
				0
			],
			"description": "色々な事に使える魔法の石ッス",
			"max_num": 999999999,
			"updated_at": "2017-10-31 23:56:01",
			"_updatedTime": {
				"dateData": 636450909610000000
			}
		},
		{
			"id": 202,
			"name": "魔晶石",
			"item_type": 2,
			"icon_no": 201,
			"effect_value": [
				0
			],
			"description": "色々な事に使える魔法の石ッス",
			"max_num": 999999999,
			"updated_at": "2017-10-31 23:56:01",
			"_updatedTime": {
				"dateData": 636450909610000000
			}
		},
		{
			"id": 301,
			"name": "行動力回復薬",
			"item_type": 3,
			"icon_no": 301,
			"effect_value": [
				100
			],
			"description": "これがあれば沢山働けるッス",
			"max_num": 999,
			"updated_at": "2017-10-31 23:56:01",
			"_updatedTime": {
				"dateData": 636450909610000000
			}
		},
		{
			"id": 302,
			"name": "行動力回復薬1/2",
			"item_type": 3,
			"icon_no": 302,
			"effect_value": [
				50
			],
			"description": "半分は働けるようになるッス",
			"max_num": 999,
			"updated_at": "2017-10-31 23:56:01",
			"_updatedTime": {
				"dateData": 636450909610000000
			}
		},
		{
			"id": 401,
			"name": "山吹色のお菓子",
			"item_type": 4,
			"icon_no": 401,
			"effect_value": [
				2,
				25
			],
			"description": "みんな大好きな定番お菓子",
			"max_num": 999,
			"updated_at": "2017-10-31 23:56:01",
			"_updatedTime": {
				"dateData": 636450909610000000
			}
		},
		{
			"id": 402,
			"name": "金の延べ棒",
			"item_type": 4,
			"icon_no": 402,
			"effect_value": [
				4,
				50
			],
			"description": "特別な時に使う袖の下アイテム",
			"max_num": 999,
			"updated_at": "2017-10-31 23:56:01",
			"_updatedTime": {
				"dateData": 636450909610000000
			}
		},
		{
			"id": 403,
			"name": "高級カニミソ",
			"item_type": 4,
			"icon_no": 403,
			"effect_value": [
				8,
				100
			],
			"description": "どんな堅物も寝返る魔界の珍味",
			"max_num": 999,
			"updated_at": "2017-10-31 23:56:01",
			"_updatedTime": {
				"dateData": 636450909610000000
			}
		},
		{
			"id": 501,
			"name": "キャラクター所持枠拡張+5",
			"item_type": 5,
			"icon_no": 501,
			"effect_value": [
				5
			],
			"description": "キャラの所持枠を+5します",
			"max_num": 799,
			"updated_at": "2017-10-31 23:56:01",
			"_updatedTime": {
				"dateData": 636450909610000000
			}
		},
		{
			"id": 601,
			"name": "武器所持枠拡張+5",
			"item_type": 6,
			"icon_no": 601,
			"effect_value": [
				5
			],
			"description": "武器の所持枠を+5します",
			"max_num": 799,
			"updated_at": "2017-10-31 23:56:01",
			"_updatedTime": {
				"dateData": 636450909610000000
			}
		},
		{
			"id": 701,
			"name": "防具所持枠拡張+5",
			"item_type": 7,
			"icon_no": 701,
			"effect_value": [
				5
			],
			"description": "防具の所持枠を+5します",
			"max_num": 799,
			"updated_at": "2017-10-31 23:56:01",
			"_updatedTime": {
				"dateData": 636450909610000000
			}
		},
		{
			"id": 801,
			"name": "イノセント倉庫拡張+5",
			"item_type": 8,
			"icon_no": 801,
			"effect_value": [
				5
			],
			"description": "イノセントの倉庫を+5します",
			"max_num": 799,
			"updated_at": "2017-10-31 23:56:01",
			"_updatedTime": {
				"dateData": 636450909610000000
			}
		},
		{
			"id": 901,
			"name": "継承石",
			"item_type": 9,
			"icon_no": 901,
			"effect_value": [
				10
			],
			"description": "キャラの継承に必要な貴重な石",
			"max_num": 999,
			"updated_at": "2017-10-31 23:56:01",
			"_updatedTime": {
				"dateData": 636450909610000000
			}
		},
		{
			"id": 1001,
			"name": "福引券",
			"item_type": 10,
			"icon_no": 1001,
			"effect_value": [
				1
			],
			"description": "ガラポンに挑戦できる券ッス",
			"max_num": 999,
			"updated_at": "2017-10-31 23:56:01",
			"_updatedTime": {
				"dateData": 636450909610000000
			}
		},
		{
			"id": 1101,
			"name": "魔ビリティーチケット",
			"item_type": 11,
			"icon_no": 1101,
			"effect_value": [
				1
			],
			"description": "魔ビリティー屋で使えるッス",
			"max_num": 999,
			"updated_at": "2017-10-31 23:56:01",
			"_updatedTime": {
				"dateData": 636450909610000000
			}
		}
	],
	"_size": 15,
	"_version": 0,
	"_syncRoot": null
}