{
	"1": {
		"name": "Main Story Episode 1"
	},
	"2": {
		"name": "Main Story Episode 2"
	},
	"3": {
		"name": "Main Story Episode 3"
	},
	"4": {
		"name": "Main Story Episode 4"
	},
	"5": {
		"name": "Main Story Episode 5"
	},
	"6": {
		"name": "Main Story Episode 6"
	},
	"7": {
		"name": "Main Story Episode 7"
	},
	"501": {
		"name": "Dark gate"
	},
	"901": {
		"name": "D1 digest version"
	}
}