{
	"1014021": {},
	"1014031": {},
	"1014041": {},
	"1014061": {},
	"1015021": {},
	"1015031": {},
	"1015051": {},
	"1015061": {},
	"1015071": {},
	"1015091": {},
	"1042091": {},
	"1044081": {},
	"1044091": {},
	"1045091": {},
	"1055021": {},
	"1055031": {},
	"1055051": {},
	"1055061": {},
	"1055141": {},
	"1055142": {},
	"1072071": {},
	"1072091": {},
	"1095141": {},
	"1095142": {},
	"1095143": {},
	"1095151": {},
	"1095152": {},
	"1095153": {},
	"1095171": {},
	"1095172": {},
	"1095173": {},
	"1104111": {},
	"50101011": {},
	"50101021": {},
	"50101031": {},
	"50101041": {},
	"50101051": {},
	"50101061": {},
	"50101071": {},
	"50101081": {},
	"50101091": {},
	"50101101": {},
	"50102011": {},
	"50102021": {},
	"50102031": {},
	"50102041": {},
	"50102051": {},
	"50102061": {},
	"50102071": {},
	"50102081": {},
	"50102091": {},
	"50102101": {},
	"50103011": {},
	"50103021": {},
	"50103031": {},
	"50103041": {},
	"50103051": {},
	"50103061": {},
	"50103071": {},
	"50103081": {},
	"50103091": {},
	"50103101": {},
	"50104011": {},
	"50104021": {},
	"50104031": {},
	"50104041": {},
	"50104051": {},
	"50104061": {},
	"50104071": {},
	"50104081": {},
	"50104091": {},
	"50104101": {},
	"50105011": {},
	"50105021": {},
	"50105031": {},
	"50105041": {},
	"50105051": {},
	"50105061": {},
	"50105071": {},
	"50105081": {},
	"50105091": {},
	"50105101": {}
}