{
	"1": {},
	"2": {},
	"3": {},
	"4": {},
	"5": {},
	"6": {},
	"7": {},
	"8": {},
	"9": {},
	"10": {},
	"11": {},
	"12": {},
	"13": {},
	"1011": {},
	"1021": {},
	"1022": {},
	"1031": {},
	"1032": {},
	"1041": {},
	"1042": {},
	"1051": {},
	"1052": {},
	"1061": {},
	"1062": {},
	"1071": {},
	"1072": {},
	"13011": {},
	"13012": {},
	"13013": {},
	"13014": {},
	"13015": {},
	"13021": {},
	"13022": {},
	"13023": {},
	"13024": {},
	"13025": {},
	"13031": {},
	"13032": {},
	"13033": {},
	"13034": {},
	"13035": {},
	"120011": {},
	"120012": {}
}